<?xml version="1.0" encoding="UTF-8"?>
<!-- Generator: Adobe Illustrator 21.0.0, SVG Export Plug-In . SVG Version: 6.00 Build 0)  -->
<svg id="Слой_1" width="377.29" height="211.42" version="1.1" viewBox="0 0 377.29 211.42" xml:space="preserve" xmlns="http://www.w3.org/2000/svg"><defs id="defs9"><marker id="Triangle" overflow="visible" markerHeight="1" markerWidth="1" orient="auto-start-reverse" preserveAspectRatio="xMidYMid" viewBox="0 0 1 1"><path id="path135" transform="scale(.5)" d="m5.77 0-8.65 5v-10z" fill="context-stroke" fill-rule="evenodd" stroke="context-stroke" stroke-width="1pt"/></marker></defs>

<g id="g32" transform="translate(234.87 117.88)"><g id="g49" transform="translate(-122.93 -111.32)"><rect id="rect32" x="-111.94" y="-6.552" width="377.29" height="211.42" rx="20" ry="20" color="#000000" fill="#fff" style="paint-order:markers stroke fill"/><g id="g48" transform="translate(-.21143 -3.5489)"><g id="g26" transform="matrix(.70703 0 0 .70703 -31.485 165.44)" stroke-width="1.3808"><path id="path18" d="m27.193-187.51-0.80323 46.712" fill="none" stroke="#6561a9" stroke-width="5.2188"/><path id="path17" d="m15.193-187.51-0.80323 46.712" fill="none" stroke="#6561a9" stroke-width="5.2188"/><path id="path20" d="m-63.293-34.205 40.856-22.661" fill="none" stroke="#6561a9" stroke-width="5.2188"/><path id="path21" d="m-69.293-44.597 40.856-22.661" fill="none" stroke="#6561a9" stroke-width="5.2188"/><path id="path10" transform="matrix(1.0723 0 0 1.0718 -155.48 -274.04)" d="m210.15 200.27-45.754 26.416-45.754-26.416v-52.832l45.754-26.416 45.754 26.416z" color="#000000" fill="none" stroke="#1488ca" stroke-linecap="round" stroke-width="4.868" style="paint-order:markers stroke fill"/><path id="path25" d="m20.792-31.09-0.80323 62.18" fill="none" stroke="#000" stroke-width="5.2188"/><path id="path26" d="m-81.716-147.79 53.447 31.785" fill="none" stroke="#000" stroke-width="5.2188"/><circle id="circle12" cx="-28.269" cy="-116" r="20.232" color="#000000" fill="#fff" style="paint-order:markers stroke fill"/><text id="text12" x="-28.268898" y="-101.4645" color="#000000" fill="#89ccca" font-family="FreeSans" font-size="39.879px" letter-spacing="0px" stroke-linecap="round" stroke-opacity=".82687" stroke-width="5.2188" text-align="center" text-anchor="middle" word-spacing="0px" style="line-height:15.0733px;paint-order:markers stroke fill;text-decoration-color:#000000;text-decoration-line:none" xml:space="preserve"><tspan id="tspan12" x="-28.268898" y="-101.4645" fill="#89ccca" stroke-width="5.2188">N</tspan></text><circle id="circle13" cx="20.792" cy="-31.059" r="20.232" color="#000000" fill="#fff" style="paint-order:markers stroke fill"/><text id="text13" x="20.791712" y="-16.523005" color="#000000" fill="#89ccca" font-family="FreeSans" font-size="39.879px" letter-spacing="0px" stroke-linecap="round" stroke-opacity=".82687" stroke-width="5.2188" text-align="center" text-anchor="middle" word-spacing="0px" style="line-height:15.0733px;paint-order:markers stroke fill;text-decoration-color:#000000;text-decoration-line:none" xml:space="preserve"><tspan id="tspan13" x="20.791712" y="-16.523005" fill="#89ccca" stroke-width="5.2188">N</tspan></text><path id="path11" transform="matrix(0 .83623 -.83589 0 120.14 -269.61)" d="m217.55-49.176 54.386 39.514-20.774 63.935-67.225-2e-6 -20.774-63.935z" color="#000000" fill="none" stroke="#95c11f" stroke-linecap="round" stroke-width="6.2421" style="paint-order:markers stroke fill"/><path id="path16" d="m84.295-112.69-0.80323 46.712" fill="none" stroke="#95c11f" stroke-width="5.2188"/><path id="path23" d="m152.06-89.473-28.107 37.319" fill="none" stroke="#95c11f" stroke-width="5.2188"/><path id="path24" d="m146.52-185.27-18.157 52.186" fill="none" stroke="#000" stroke-width="5.2188"/><circle id="path12" cx="128.22" cy="-42.207" r="20.232" color="#000000" fill="#fff" style="paint-order:markers stroke fill"/><text id="text11" x="128.21559" y="-27.671217" color="#000000" fill="#89ccca" font-family="FreeSans" font-size="39.879px" letter-spacing="0px" stroke-linecap="round" stroke-opacity=".82687" stroke-width="5.2188" text-align="center" text-anchor="middle" word-spacing="0px" style="line-height:15.0733px;paint-order:markers stroke fill;text-decoration-color:#000000;text-decoration-line:none" xml:space="preserve"><tspan id="tspan11" x="128.21559" y="-27.671217" fill="#89ccca" stroke-width="5.2188">N</tspan></text><circle id="circle14" cx="128.22" cy="-133.17" r="20.232" color="#000000" fill="#fff" style="paint-order:markers stroke fill"/><text id="text14" x="128.21562" y="-118.63012" color="#000000" fill="#89ccca" font-family="FreeSans" font-size="39.879px" letter-spacing="0px" stroke-linecap="round" stroke-opacity=".82687" stroke-width="5.2188" text-align="center" text-anchor="middle" word-spacing="0px" style="line-height:15.0733px;paint-order:markers stroke fill;text-decoration-color:#000000;text-decoration-line:none" xml:space="preserve"><tspan id="tspan14" x="128.21562" y="-118.63012" fill="#89ccca" stroke-width="5.2188">N</tspan></text><circle id="circle18" cx="20.792" cy="-198.31" r="20.232" color="#000000" fill="#fff" style="paint-order:markers stroke fill"/><text id="text18" x="20.791723" y="-183.99767" color="#000000" fill="#6561a9" font-family="FreeSans" font-size="39.879px" letter-spacing="0px" stroke-linecap="round" stroke-opacity=".82687" stroke-width="5.2188" text-align="center" text-anchor="middle" word-spacing="0px" style="line-height:15.0733px;paint-order:markers stroke fill;text-decoration-color:#000000;text-decoration-line:none" xml:space="preserve"><tspan id="tspan18" x="20.791723" y="-183.99767" fill="#6561a9" stroke-width="5.2188">O</tspan></text><circle id="circle21" transform="rotate(240)" cx="66.867" cy="-48.515" r="20.232" color="#000000" fill="#fff" style="paint-order:markers stroke fill"/><text id="text21" x="-75.448685" y="-19.334925" color="#000000" fill="#6561a9" font-family="FreeSans" font-size="39.879px" letter-spacing="0px" stroke-linecap="round" stroke-opacity=".82687" stroke-width="5.2188" text-align="center" text-anchor="middle" word-spacing="0px" style="line-height:15.0733px;paint-order:markers stroke fill;text-decoration-color:#000000;text-decoration-line:none" xml:space="preserve"><tspan id="tspan21" x="-75.448685" y="-19.334925" fill="#6561a9" stroke-width="5.2188">O</tspan></text></g><g id="g31" transform="translate(2.6014 -13.535)"><g id="g30" transform="translate(1.9534 1.4996)"><rect id="rect26" x="142.79" y="119.45" width="15.072" height="42.766" color="#000000" style="paint-order:markers stroke fill"/><rect id="rect27" x="162.79" y="31.059" width="15.072" height="131.16" color="#000000" fill="#1488ca" style="paint-order:markers stroke fill"/><rect id="rect28" x="182.79" y="56.502" width="15.072" height="105.71" color="#000000" fill="#95c11f" style="paint-order:markers stroke fill"/><rect id="rect29" x="202.79" y="92.316" width="15.072" height="69.899" color="#000000" fill="#89ccca" style="paint-order:markers stroke fill"/><rect id="rect30" x="222.79" y="68.244" width="15.072" height="93.97" color="#000000" fill="#6561a9" style="paint-order:markers stroke fill"/></g><rect id="rect31" x="135.19" y="24.103" width="114.17" height="138.61" color="#000000" fill="none" stroke="#000" stroke-linecap="round" stroke-width="2" style="paint-order:markers stroke fill"/></g><path id="path31" d="m94.367 103.7h22.153" fill="none" marker-end="url(#Triangle)" stroke="#000" stroke-width="2.9806"/><g id="g34" transform="translate(135.67 255.65)" fill="#fff" font-family="FreeSans" font-size="52.913px" letter-spacing="0px" stroke="#000" stroke-linecap="round" stroke-width="2" text-anchor="middle" word-spacing="0px"><text id="text33" x="-44.861904" y="-60.33387" color="#000000" text-align="center" style="line-height:20px;paint-order:markers stroke fill;text-decoration-color:#000000;text-decoration-line:none" xml:space="preserve"><tspan id="tspan33" x="-44.861908" y="-60.33387" fill="#1488ca" font-family="'Inria Sans'" stroke="none">Chem</tspan></text><text id="text34" x="68.90239" y="-60.33387" color="#000000" text-align="center" style="line-height:20px;paint-order:markers stroke fill;text-decoration-color:#000000;text-decoration-line:none" xml:space="preserve"><tspan id="tspan34" x="68.90239" y="-60.33387" fill="#6561a9" font-family="'Inria Sans'" stroke="none">Feat</tspan></text></g></g></g></g></svg>
